…
freq %>%
  arrange(-count)
```

    ## # A tibble: 12,972 x 5
    ##    word     count.x count.y  count log_count
    ##    <chr>      <dbl>   <dbl>  <dbl>     <dbl>
    ##  1 which  810514085    3719 0.0554      13.9
    ##  2 there  701170205    3278 0.0486      13.8
    ##  3 their  782849411    2608 0.0423      13.6
    ##  4 about 1226734006    1971 0.0420      13.6
    ##  5 would  572644147    2551 0.0383      13.5
    ##  6 other  978481319    1421 0.0317      13.4
    ##  7 could  302311431    1683 0.0241      13.1
    ##  8 these  541003982    1254 0.0229      13.0
    ##  9 first  578161543    1193 0.0228      13.0
    ## 10 after  372948094    1160 0.0192      12.9
    ## # ... with 12,962 more rows
…
  tibble(words, equal_score, in_score, score = weight*equal_score + (1 - weight)*in_score) %>%
    arrange(-score)
}
```

For example, we can ask it for an initial guess by scoring all possible
words given that we have made no guesses so far:

``` r
score_words(helper)
```

    ## # A tibble: 12,972 x 4
    ##    words equal_score in_score score
    ##    <chr>       <dbl>    <dbl> <dbl>
    ##  1 tares       0.791     1.89  1.34
    ##  2 lares       0.772     1.88  1.33
    ##  3 rales       0.748     1.88  1.31
    ##  4 rates       0.733     1.89  1.31
    ##  5 nares       0.747     1.86  1.30
    ##  6 cares       0.806     1.80  1.30
    ##  7 tales       0.767     1.82  1.29
    ##  8 dares       0.776     1.81  1.29
    ##  9 pares       0.792     1.77  1.28
    ## 10 tores       0.780     1.78  1.28
    ## # ... with 12,962 more rows
…
